SerDes_project/SerDes_project.sim/sim_1/behav/xsim/scrambler_descrambler_tb.vcd
$date
   Sun Sep 21 10:52:20 2025
$end

$version
  2023.2
  $dumpfile ("scrambler_descrambler_tb.vcd") 
$end

$timescale
  1ps
$end

$scope module tb_scrambler_descrambler $end
$var reg 1 ! clk $end
$var reg 1 " rst_n $end
$var reg 128 # scr_in_data [127:0] $end
$var reg 1 $ scr_in_valid $end
$var reg 1 % scr_in_is_ctl $end
$var reg 128 & scr_out_data [127:0] $end
$var reg 1 ' scr_out_valid $end
$var reg 128 ( dscr_in_data [127:0] $end
$var reg 1 ) dscr_in_valid $end
$var reg 1 * dscr_in_is_ctl $end
$var reg 128 + dscr_out_data [127:0] $end
$var reg 1 , dscr_out_valid $end
$var reg 32 - test_data_queue $end
$var reg 128 . original_data [127:0] $end
$var reg 128 / scrambled_data [127:0] $end
$var reg 128 0 descrambled_data [127:0] $end
$var reg 32 1 test_count [31:0] $end
$var reg 32 2 pass_count [31:0] $end
$var reg 32 3 fail_count [31:0] $end
$var reg 128 4 pattern [127:0] $end
$var reg 128 5 data [127:0] $end
$var time 64 6 start_time [63:0] $end
$var time 64 7 end_time [63:0] $end
$scope module u_scrambler $end
$var wire 1 8 clk $end
$var wire 1 9 rst_n $end
$var wire 128 : in_data [127:0] $end
$var wire 1 ; in_valid $end
$var wire 1 < in_is_ctl $end
$var reg 128 & out_data [127:0] $end
$var reg 1 ' out_valid $end
$var wire 1 = scrambler_enable $end
$var reg 128 > data_reg_0 [127:0] $end
$var reg 128 ? data_reg_1 [127:0] $end
$var reg 128 @ data_reg_2 [127:0] $end
$var reg 128 A data_reg_3 [127:0] $end
$var reg 128 B data_reg_4 [127:0] $end
$var reg 1 C in_is_ctl_reg_0 $end
$var reg 1 D in_is_ctl_reg_1 $end
$var reg 1 E in_is_ctl_reg_2 $end
$var reg 1 F in_is_ctl_reg_3 $end
$var reg 1 G in_is_ctl_reg_4 $end
$var reg 1 H LFSR_enable_0 $end
$var reg 1 I LFSR_enable_1 $end
$var reg 1 J LFSR_enable_2 $end
$var reg 1 K LFSR_enable_3 $end
$var reg 1 L in_valid_reg_0 $end
$var reg 1 M in_valid_reg_1 $end
$var reg 1 N in_valid_reg_2 $end
$var reg 1 O in_valid_reg_3 $end
$var reg 1 P in_valid_reg_4 $end
$var reg 32 Q LFSR_D_OUT_0 [31:0] $end
$var reg 32 R LFSR_D_OUT_1 [31:0] $end
$var reg 32 S LFSR_D_OUT_2 [31:0] $end
$var reg 32 T LFSR_D_OUT_3 [31:0] $end
$scope module u_lfsr_0 $end
$var wire 1 8 clk $end
$var wire 1 9 reset_n $end
$var wire 1 U enable $end
$var wire 32 V D_IN [31:0] $end
$var reg 32 Q D_OUT [31:0] $end
$var reg 23 W STATE [22:0] $end
$var reg 23 X STATE_NEXT [22:0] $end
$var reg 1 Y xilinx_isim_temp_20_ln11_assignTransform $end
$var reg 1 Z xilinx_isim_temp_0_ln11_assignTransform $end
$var reg 1 [ xilinx_isim_temp_4_ln11_assignTransform $end
$var reg 1 \ xilinx_isim_temp_5_ln11_assignTransform $end
$var reg 1 ] xilinx_isim_temp_6_ln11_assignTransform $end
$var reg 1 ^ xilinx_isim_temp_11_ln11_assignTransform $end
$var reg 1 _ xilinx_isim_temp_12_ln11_assignTransform $end
$var reg 1 ` xilinx_isim_temp_1_ln11_assignTransform $end
$var reg 1 a xilinx_isim_temp_2_ln11_assignTransform $end
$var reg 1 b xilinx_isim_temp_3_ln11_assignTransform $end
$var reg 1 c xilinx_isim_temp_8_ln11_assignTransform $end
$var reg 1 d xilinx_isim_temp_9_ln11_assignTransform $end
$var reg 1 e xilinx_isim_temp_10_ln11_assignTransform $end
$var reg 1 f xilinx_isim_temp_15_ln11_assignTransform $end
$var reg 1 g xilinx_isim_temp_7_ln11_assignTransform $end
$var reg 1 h xilinx_isim_temp_14_ln11_assignTransform $end
$var reg 1 i xilinx_isim_temp_17_ln11_assignTransform $end
$var reg 1 j xilinx_isim_temp_13_ln11_assignTransform $end
$var reg 1 k xilinx_isim_temp_16_ln11_assignTransform $end
$var reg 1 l xilinx_isim_temp_18_ln11_assignTransform $end
$var reg 1 m xilinx_isim_temp_19_ln11_assignTransform $end
$var reg 1 n xilinx_isim_temp_21_ln11_assignTransform $end
$var reg 1 o xilinx_isim_temp_22_ln11_assignTransform $end
$upscope $end
$scope module u_lfsr_1 $end
$var wire 1 8 clk $end
$var wire 1 9 reset_n $end
$var wire 1 p enable $end
$var wire 32 q D_IN [31:0] $end
$var reg 32 R D_OUT [31:0] $end
$var reg 23 r STATE [22:0] $end
$var reg 23 s STATE_NEXT [22:0] $end
$var reg 1 t xilinx_isim_temp_20_ln11_assignTransform $end
$var reg 1 u xilinx_isim_temp_0_ln11_assignTransform $end
$var reg 1 v xilinx_isim_temp_4_ln11_assignTransform $end
$var reg 1 w xilinx_isim_temp_5_ln11_assignTransform $end
$var reg 1 x xilinx_isim_temp_6_ln11_assignTransform $end
$var reg 1 y xilinx_isim_temp_11_ln11_assignTransform $end
$var reg 1 z xilinx_isim_temp_12_ln11_assignTransform $end
$var reg 1 { xilinx_isim_temp_1_ln11_assignTransform $end
$var reg 1 | xilinx_isim_temp_2_ln11_assignTransform $end
$var reg 1 } xilinx_isim_temp_3_ln11_assignTransform $end
$var reg 1 ~ xilinx_isim_temp_8_ln11_assignTransform $end
$var reg 1 !! xilinx_isim_temp_9_ln11_assignTransform $end
$var reg 1 "! xilinx_isim_temp_10_ln11_assignTransform $end
$var reg 1 #! xilinx_isim_temp_15_ln11_assignTransform $end
$var reg 1 $! xilinx_isim_temp_7_ln11_assignTransform $end
$var reg 1 %! xilinx_isim_temp_14_ln11_assignTransform $end
$var reg 1 &! xilinx_isim_temp_17_ln11_assignTransform $end
$var reg 1 '! xilinx_isim_temp_13_ln11_assignTransform $end
$var reg 1 (! xilinx_isim_temp_16_ln11_assignTransform $end
$var reg 1 )! xilinx_isim_temp_18_ln11_assignTransform $end
$var reg 1 *! xilinx_isim_temp_19_ln11_assignTransform $end
$var reg 1 +! xilinx_isim_temp_21_ln11_assignTransform $end
$var reg 1 ,! xilinx_isim_temp_22_ln11_assignTransform $end
$upscope $end
$scope module u_lfsr_2 $end
$var wire 1 8 clk $end
$var wire 1 9 reset_n $end
$var wire 1 -! enable $end
$var wire 32 .! D_IN [31:0] $end
$var reg 32 S D_OUT [31:0] $end
$var reg 23 /! STATE [22:0] $end
$var reg 23 0! STATE_NEXT [22:0] $end
$var reg 1 1! xilinx_isim_temp_20_ln11_assignTransform $end
$var reg 1 2! xilinx_isim_temp_0_ln11_assignTransform $end
$var reg 1 3! xilinx_isim_temp_4_ln11_assignTransform $end
$var reg 1 4! xilinx_isim_temp_5_ln11_assignTransform $end
$var reg 1 5! xilinx_isim_temp_6_ln11_assignTransform $end
$var reg 1 6! xilinx_isim_temp_11_ln11_assignTransform $end
$var reg 1 7! xilinx_isim_temp_12_ln11_assignTransform $end
$var reg 1 8! xilinx_isim_temp_1_ln11_assignTransform $end
$var reg 1 9! xilinx_isim_temp_2_ln11_assignTransform $end
$var reg 1 :! xilinx_isim_temp_3_ln11_assignTransform $end
$var reg 1 ;! xilinx_isim_temp_8_ln11_assignTransform $end
$var reg 1 <! xilinx_isim_temp_9_ln11_assignTransform $end
$var reg 1 =! xilinx_isim_temp_10_ln11_assignTransform $end
$var reg 1 >! xilinx_isim_temp_15_ln11_assignTransform $end
$var reg 1 ?! xilinx_isim_temp_7_ln11_assignTransform $end
$var reg 1 @! xilinx_isim_temp_14_ln11_assignTransform $end
$var reg 1 A! xilinx_isim_temp_17_ln11_assignTransform $end
$var reg 1 B! xilinx_isim_temp_13_ln11_assignTransform $end
$var reg 1 C! xilinx_isim_temp_16_ln11_assignTransform $end
$var reg 1 D! xilinx_isim_temp_18_ln11_assignTransform $end
$var reg 1 E! xilinx_isim_temp_19_ln11_assignTransform $end
$var reg 1 F! xilinx_isim_temp_21_ln11_assignTransform $end
$var reg 1 G! xilinx_isim_temp_22_ln11_assignTransform $end
$upscope $end
$scope module u_lfsr_3 $end
$var wire 1 8 clk $end
$var wire 1 9 reset_n $end
$var wire 1 H! enable $end
$var wire 32 I! D_IN [31:0] $end
$var reg 32 T D_OUT [31:0] $end
$var reg 23 J! STATE [22:0] $end
$var reg 23 K! STATE_NEXT [22:0] $end
$var reg 1 L! xilinx_isim_temp_20_ln11_assignTransform $end
$var reg 1 M! xilinx_isim_temp_0_ln11_assignTransform $end
$var reg 1 N! xilinx_isim_temp_4_ln11_assignTransform $end
$var reg 1 O! xilinx_isim_temp_5_ln11_assignTransform $end
$var reg 1 P! xilinx_isim_temp_6_ln11_assignTransform $end
$var reg 1 Q! xilinx_isim_temp_11_ln11_assignTransform $end
$var reg 1 R! xilinx_isim_temp_12_ln11_assignTransform $end
$var reg 1 S! xilinx_isim_temp_1_ln11_assignTransform $end
$var reg 1 T! xilinx_isim_temp_2_ln11_assignTransform $end
$var reg 1 U! xilinx_isim_temp_3_ln11_assignTransform $end
$var reg 1 V! xilinx_isim_temp_8_ln11_assignTransform $end
$var reg 1 W! xilinx_isim_temp_9_ln11_assignTransform $end
$var reg 1 X! xilinx_isim_temp_10_ln11_assignTransform $end
$var reg 1 Y! xilinx_isim_temp_15_ln11_assignTransform $end
$var reg 1 Z! xilinx_isim_temp_7_ln11_assignTransform $end
$var reg 1 [! xilinx_isim_temp_14_ln11_assignTransform $end
$var reg 1 \! xilinx_isim_temp_17_ln11_assignTransform $end
$var reg 1 ]! xilinx_isim_temp_13_ln11_assignTransform $end
$var reg 1 ^! xilinx_isim_temp_16_ln11_assignTransform $end
$var reg 1 _! xilinx_isim_temp_18_ln11_assignTransform $end
$var reg 1 `! xilinx_isim_temp_19_ln11_assignTransform $end
$var reg 1 a! xilinx_isim_temp_21_ln11_assignTransform $end
$var reg 1 b! xilinx_isim_temp_22_ln11_assignTransform $end
$upscope $end
$upscope $end
$scope module u_descrambler $end
$var wire 1 c! clk $end
$var wire 1 d! rst_n $end
$var wire 128 e! in_data [127:0] $end
$var wire 1 f! in_valid $end
$var wire 1 g! in_is_ctl $end
$var reg 128 + out_data [127:0] $end
$var reg 1 , out_valid $end
$var wire 1 h! scrambler_enable $end
$var reg 128 i! data_reg_0 [127:0] $end
$var reg 128 j! data_reg_1 [127:0] $end
$var reg 128 k! data_reg_2 [127:0] $end
$var reg 128 l! data_reg_3 [127:0] $end
$var reg 128 m! data_reg_4 [127:0] $end
$var reg 1 n! in_is_ctl_reg_0 $end
$var reg 1 o! in_is_ctl_reg_1 $end
$var reg 1 p! in_is_ctl_reg_2 $end
$var reg 1 q! in_is_ctl_reg_3 $end
$var reg 1 r! in_is_ctl_reg_4 $end
$var reg 1 s! LFSR_enable_0 $end
$var reg 1 t! LFSR_enable_1 $end
$var reg 1 u! LFSR_enable_2 $end
$var reg 1 v! LFSR_enable_3 $end
$var reg 1 w! in_valid_reg_0 $end
$var reg 1 x! in_valid_reg_1 $end
$var reg 1 y! in_valid_reg_2 $end
$var reg 1 z! in_valid_reg_3 $end
$var reg 1 {! in_valid_reg_4 $end
$var reg 32 |! LFSR_D_OUT_0 [31:0] $end
$var reg 32 }! LFSR_D_OUT_1 [31:0] $end
$var reg 32 ~! LFSR_D_OUT_2 [31:0] $end
$var reg 32 !" LFSR_D_OUT_3 [31:0] $end
$scope module u_lfsr_0 $end
$var wire 1 c! clk $end
$var wire 1 d! reset_n $end
$var wire 1 "" enable $end
$var wire 32 #" D_IN [31:0] $end
$var reg 32 |! D_OUT [31:0] $end
$var reg 23 $" STATE [22:0] $end
$var reg 23 %" STATE_NEXT [22:0] $end
$var reg 1 &" xilinx_isim_temp_20_ln11_assignTransform $end
$var reg 1 '" xilinx_isim_temp_0_ln11_assignTransform $end
$var reg 1 (" xilinx_isim_temp_4_ln11_assignTransform $end
$var reg 1 )" xilinx_isim_temp_5_ln11_assignTransform $end
$var reg 1 *" xilinx_isim_temp_6_ln11_assignTransform $end
$var reg 1 +" xilinx_isim_temp_11_ln11_assignTransform $end
$var reg 1 ," xilinx_isim_temp_12_ln11_assignTransform $end
$var reg 1 -" xilinx_isim_temp_1_ln11_assignTransform $end
$var reg 1 ." xilinx_isim_temp_2_ln11_assignTransform $end
$var reg 1 /" xilinx_isim_temp_3_ln11_assignTransform $end
$var reg 1 0" xilinx_isim_temp_8_ln11_assignTransform $end
$var reg 1 1" xilinx_isim_temp_9_ln11_assignTransform $end
$var reg 1 2" xilinx_isim_temp_10_ln11_assignTransform $end
$var reg 1 3" xilinx_isim_temp_15_ln11_assignTransform $end
$var reg 1 4" xilinx_isim_temp_7_ln11_assignTransform $end
$var reg 1 5" xilinx_isim_temp_14_ln11_assignTransform $end
$var reg 1 6" xilinx_isim_temp_17_ln11_assignTransform $end
$var reg 1 7" xilinx_isim_temp_13_ln11_assignTransform $end
$var reg 1 8" xilinx_isim_temp_16_ln11_assignTransform $end
$var reg 1 9" xilinx_isim_temp_18_ln11_assignTransform $end
$var reg 1 :" xilinx_isim_temp_19_ln11_assignTransform $end
$var reg 1 ;" xilinx_isim_temp_21_ln11_assignTransform $end
$var reg 1 <" xilinx_isim_temp_22_ln11_assignTransform $end
$upscope $end
$scope module u_lfsr_1 $end
$var wire 1 c! clk $end
$var wire 1 d! reset_n $end
$var wire 1 =" enable $end
$var wire 32 >" D_IN [31:0] $end
$var reg 32 }! D_OUT [31:0] $end
$var reg 23 ?" STATE [22:0] $end
$var reg 23 @" STATE_NEXT [22:0] $end
$var reg 1 A" xilinx_isim_temp_20_ln11_assignTransform $end
$var reg 1 B" xilinx_isim_temp_0_ln11_assignTransform $end
$var reg 1 C" xilinx_isim_temp_4_ln11_assignTransform $end
$var reg 1 D" xilinx_isim_temp_5_ln11_assignTransform $end
$var reg 1 E" xilinx_isim_temp_6_ln11_assignTransform $end
$var reg 1 F" xilinx_isim_temp_11_ln11_assignTransform $end
$var reg 1 G" xilinx_isim_temp_12_ln11_assignTransform $end
$var reg 1 H" xilinx_isim_temp_1_ln11_assignTransform $end
$var reg 1 I" xilinx_isim_temp_2_ln11_assignTransform $end
$var reg 1 J" xilinx_isim_temp_3_ln11_assignTransform $end
$var reg 1 K" xilinx_isim_temp_8_ln11_assignTransform $end
$var reg 1 L" xilinx_isim_temp_9_ln11_assignTransform $end
$var reg 1 M" xilinx_isim_temp_10_ln11_assignTransform $end
$var reg 1 N" xilinx_isim_temp_15_ln11_assignTransform $end
$var reg 1 O" xilinx_isim_temp_7_ln11_assignTransform $end
$var reg 1 P" xilinx_isim_temp_14_ln11_assignTransform $end
$var reg 1 Q" xilinx_isim_temp_17_ln11_assignTransform $end
$var reg 1 R" xilinx_isim_temp_13_ln11_assignTransform $end
$var reg 1 S" xilinx_isim_temp_16_ln11_assignTransform $end
$var reg 1 T" xilinx_isim_temp_18_ln11_assignTransform $end
$var reg 1 U" xilinx_isim_temp_19_ln11_assignTransform $end
$var reg 1 V" xilinx_isim_temp_21_ln11_assignTransform $end
$var reg 1 W" xilinx_isim_temp_22_ln11_assignTransform $end
$upscope $end
$scope module u_lfsr_2 $end
$var wire 1 c! clk $end
$var wire 1 d! reset_n $end
$var wire 1 X" enable $end
$var wire 32 Y" D_IN [31:0] $end
$var reg 32 ~! D_OUT [31:0] $end
$var reg 23 Z" STATE [22:0] $end
$var reg 23 [" STATE_NEXT [22:0] $end
$var reg 1 \" xilinx_isim_temp_20_ln11_assignTransform $end
$var reg 1 ]" xilinx_isim_temp_0_ln11_assignTransform $end
$var reg 1 ^" xilinx_isim_temp_4_ln11_assignTransform $end
$var reg 1 _" xilinx_isim_temp_5_ln11_assignTransform $end
$var reg 1 `" xilinx_isim_temp_6_ln11_assignTransform $end
$var reg 1 a" xilinx_isim_temp_11_ln11_assignTransform $end
$var reg 1 b" xilinx_isim_temp_12_ln11_assignTransform $end
$var reg 1 c" xilinx_isim_temp_1_ln11_assignTransform $end
$var reg 1 d" xilinx_isim_temp_2_ln11_assignTransform $end
$var reg 1 e" xilinx_isim_temp_3_ln11_assignTransform $end
$var reg 1 f" xilinx_isim_temp_8_ln11_assignTransform $end
$var reg 1 g" xilinx_isim_temp_9_ln11_assignTransform $end
$var reg 1 h" xilinx_isim_temp_10_ln11_assignTransform $end
$var reg 1 i" xilinx_isim_temp_15_ln11_assignTransform $end
$var reg 1 j" xilinx_isim_temp_7_ln11_assignTransform $end
$var reg 1 k" xilinx_isim_temp_14_ln11_assignTransform $end
$var reg 1 l" xilinx_isim_temp_17_ln11_assignTransform $end
$var reg 1 m" xilinx_isim_temp_13_ln11_assignTransform $end
$var reg 1 n" xilinx_isim_temp_16_ln11_assignTransform $end
$var reg 1 o" xilinx_isim_temp_18_ln11_assignTransform $end
$var reg 1 p" xilinx_isim_temp_19_ln11_assignTransform $end
$var reg 1 q" xilinx_isim_temp_21_ln11_assignTransform $end
$var reg 1 r" xilinx_isim_temp_22_ln11_assignTransform $end
$upscope $end
$scope module u_lfsr_3 $end
$var wire 1 c! clk $end
$var wire 1 d! reset_n $end
$var wire 1 s" enable $end
$var wire 32 t" D_IN [31:0] $end
$var reg 32 !" D_OUT [31:0] $end
$var reg 23 u" STATE [22:0] $end
$var reg 23 v" STATE_NEXT [22:0] $end
$var reg 1 w" xilinx_isim_temp_20_ln11_assignTransform $end
$var reg 1 x" xilinx_isim_temp_0_ln11_assignTransform $end
$var reg 1 y" xilinx_isim_temp_4_ln11_assignTransform $end
$var reg 1 z" xilinx_isim_temp_5_ln11_assignTransform $end
$var reg 1 {" xilinx_isim_temp_6_ln11_assignTransform $end
$var reg 1 |" xilinx_isim_temp_11_ln11_assignTransform $end
$var reg 1 }" xilinx_isim_temp_12_ln11_assignTransform $end
$var reg 1 ~" xilinx_isim_temp_1_ln11_assignTransform $end
$var reg 1 !# xilinx_isim_temp_2_ln11_assignTransform $end
$var reg 1 "# xilinx_isim_temp_3_ln11_assignTransform $end
$var reg 1 ## xilinx_isim_temp_8_ln11_assignTransform $end
$var reg 1 $# xilinx_isim_temp_9_ln11_assignTransform $end
$var reg 1 %# xilinx_isim_temp_10_ln11_assignTransform $end
$var reg 1 &# xilinx_isim_temp_15_ln11_assignTransform $end
$var reg 1 '# xilinx_isim_temp_7_ln11_assignTransform $end
$var reg 1 (# xilinx_isim_temp_14_ln11_assignTransform $end
$var reg 1 )# xilinx_isim_temp_17_ln11_assignTransform $end
$var reg 1 *# xilinx_isim_temp_13_ln11_assignTransform $end
$var reg 1 +# xilinx_isim_temp_16_ln11_assignTransform $end
$var reg 1 ,# xilinx_isim_temp_18_ln11_assignTransform $end
$var reg 1 -# xilinx_isim_temp_19_ln11_assignTransform $end
$var reg 1 .# xilinx_isim_temp_21_ln11_assignTransform $end
$var reg 1 /# xilinx_isim_temp_22_ln11_assignTransform $end
$upscope $end
$upscope $end
$scope task test_basic_functionality $end
$upscope $end
$scope task test_control_bypass $end
$upscope $end
$scope task test_random_data $end
$scope begin Block163_21 $end
$var reg 32 0# i [31:0] $end
$scope begin Block163_22 $end
$var reg 128 1# random_data [127:0] $end
$upscope $end
$upscope $end
$upscope $end
$scope task test_pattern_data $end
$scope begin Block178_23 $end
$var reg 32 2# i [31:0] $end
$upscope $end
$scope begin Block184_24 $end
$var reg 32 3# i [31:0] $end
$upscope $end
$upscope $end
$scope task test_back_to_back $end
$scope begin Block198_25 $end
$var reg 32 4# i [31:0] $end
$upscope $end
$upscope $end
$scope task test_timing_8_packets $end
$scope begin Block234_26 $end
$var reg 32 5# i [31:0] $end
$upscope $end
$upscope $end
$scope task send_data $end
$var reg 128 6# data [127:0] $end
$var reg 1 7# is_ctl $end
$upscope $end
$scope task wait_for_completion $end
$upscope $end
$upscope $end
$enddefinitions $end

#0
$dumpvars
0!
1!!
b11111111111111111111111111111111 !"
1!#
0"
1"!
0""
1"#
b0 #
1#!
b0 #"
1##
0$
1$!
b11111111111111111111111 $"
1$#
0%
1%!
b11111111111111111111111 %"
1%#
b0 &
1&!
1&"
1&#
x'
1'!
1'"
1'#
bx (
1(!
1("
1(#
x)
1)!
1)"
1)#
x*
1*!
1*"
1*#
b0 +
1+!
1+"
1+#
x,
1,!
1,"
1,#
b0 -
0-!
1-"
1-#
bx .
b0 .!
1."
1.#
bx /
b11111111111111111111111 /!
1/"
1/#
bx 0
b11111111111111111111111 0!
10"
b0 0#
b0 1
11!
11"
bx 1#
b0 2
12!
12"
b0 2#
b0 3
13!
13"
b0 3#
bx 4
14!
14"
b0 4#
bx 5
15!
15"
b0 5#
bx 6
16!
16"
bx 6#
bx 7
17!
17"
x7#
08
18!
18"
09
19!
19"
b0 :
1:!
1:"
0;
1;!
1;"
0<
1<!
1<"
z=
1=!
0="
b0 >
1>!
b0 >"
b0 ?
1?!
b11111111111111111111111 ?"
b0 @
1@!
b11111111111111111111111 @"
b0 A
1A!
1A"
b0 B
1B!
1B"
1C
1C!
1C"
1D
1D!
1D"
1E
1E!
1E"
1F
1F!
1F"
1G
1G!
1G"
0H
0H!
1H"
0I
b0 I!
1I"
0J
b11111111111111111111111 J!
1J"
0K
b11111111111111111111111 K!
1K"
xL
1L!
1L"
xM
1M!
1M"
xN
1N!
1N"
xO
1O!
1O"
xP
1P!
1P"
b11111111111111111111111111111111 Q
1Q!
1Q"
b11111111111111111111111111111111 R
1R!
1R"
b11111111111111111111111111111111 S
1S!
1S"
b11111111111111111111111111111111 T
1T!
1T"
0U
1U!
1U"
b0 V
1V!
1V"
b11111111111111111111111 W
1W!
1W"
b11111111111111111111111 X
1X!
0X"
1Y
1Y!
b0 Y"
1Z
1Z!
b11111111111111111111111 Z"
1[
1[!
b11111111111111111111111 ["
1\
1\!
1\"
1]
1]!
1]"
1^
1^!
1^"
1_
1_!
1_"
1`
1`!
1`"
1a
1a!
1a"
1b
1b!
1b"
1c
0c!
1c"
1d
0d!
1d"
1e
bx e!
1e"
1f
xf!
1f"
1g
xg!
1g"
1h
zh!
1h"
1i
b0 i!
1i"
1j
b0 j!
1j"
1k
b0 k!
1k"
1l
b0 l!
1l"
1m
b0 m!
1m"
1n
1n!
1n"
1o
1o!
1o"
0p
1p!
1p"
b0 q
1q!
1q"
b11111111111111111111111 r
1r!
1r"
b11111111111111111111111 s
0s!
0s"
1t
0t!
b0 t"
1u
0u!
b11111111111111111111111 u"
1v
0v!
b11111111111111111111111 v"
1w
xw!
1w"
1x
xx!
1x"
1y
xy!
1y"
1z
xz!
1z"
1{
x{!
1{"
1|
b11111111111111111111111111111111 |!
1|"
1}
b11111111111111111111111111111111 }!
1}"
1~
b11111111111111111111111111111111 ~!
1~"
$end

#5000
1!
0)
18
1c!
0f!

#10000
0!
08
0c!

#15000
1!
18
1c!

#20000
0!
08
0c!

#25000
1!
18
1c!

#30000
0!
08
0c!

#35000
1!
18
1c!

#40000
0!
08
0c!

#45000
1!
1"
18
19
0L
1c!
1d!
0w!

#50000
0!
08
0c!

#55000
1!
18
0M
1c!
0x!

#60000
0!
08
0c!

#65000
1!
18
0N
1c!
0y!

#70000
0!
08
0c!

#75000
1!
18
0O
1c!
0z!

#80000
0!
08
0c!

#85000
1!
0'
0,
18
0P
1c!
0{!

#90000
0!
08
0c!

#95000
1!
18
1c!

#100000
0!
08
0c!

#105000
1!
18
1c!

#110000
0!
08
0c!

#115000
1!
18
1c!

#120000
0!
08
0c!

#125000
1!
18
1c!

#130000
0!
08
0c!

#135000
1!
18
1c!

#140000
0!
08
0c!

#145000
1!
b1001000110100010101100111100010011010101111001101111011111111111011011100101110101001100001110110010101000011001000010000 6#
07#
18
1c!

#150000
0!
08
0c!

#155000
1!
b1001000110100010101100111100010011010101111001101111011111111111011011100101110101001100001110110010101000011001000010000 #
1$
18
b1001000110100010101100111100010011010101111001101111011111111111011011100101110101001100001110110010101000011001000010000 :
1;
1c!

#160000
0!
08
0c!

#165000
1!
0$
b11111111111111111111111111111111111111111111111111111111111111111111111111111111111111111111111111111111111111111111111111111111 6#
18
0;
b1001000110100010101100111100010011010101111001101111011111111111011011100101110101001100001110110010101000011001000010000 >
0C
xH
1L
b11111110110111001011101010011000 Q
xU
b1001000110100010101100111 V
1c!

#170000
0!
08
0c!

#175000
1!
b11111111111111111111111111111111111111111111111111111111111111111111111111111111111111111111111111111111111111111111111111111111 #
1$
18
b11111111111111111111111111111111111111111111111111111111111111111111111111111111111111111111111111111111111111111111111111111111 :
1;
b0 >
b10001001101010111100110111101111111111101101110010111010100110000111011001010100001100100001000011111110110111001011101010011000 ?
1C
0D
0H
xI
0L
1M
b11111111111111111111111111111111 Q
b1110110010101000011001000010000 R
0U
b0 V
1c!
xp
b10001001101010111100110111101111 q

#180000
0!
08
0c!

#185000
1!
0$
x-!
b11111110110111001011101010011000 .!
b0 6#
18
0;
b11111111111111111111111111111111111111111111111111111111111111111111111111111111111111111111111111111111111111111111111111111111 >
b0 ?
b11111110110111001011101010011000011101100101010000110010000100001111111011011100101110101001100001110110010101000011001000010000 @
0C
1D
0E
xH
0I
xJ
1L
0M
1N
b0 Q
b11111111111111111111111111111111 R
b1001000110100010101100111 S
xU
b11111111111111111111111111111111 V
1c!
0p
b0 q

#190000
0!
08
0c!

#195000
1!
b0 #
1$
0-!
b0 .!
18
b0 :
1;
b0 >
b11111111111111111111111111111111111111111111111111111111111111111111111111111111111111111111111100000000000000000000000000000000 ?
b0 @
b1110110010101000011001000010000111111101101110010111010100110000111011001010100001100100001000000000001001000110100010101100111 A
1C
0D
1E
0F
0H
xH!
xI
b1110110010101000011001000010000 I!
0J
xK
0L
1M
0N
1O
b11111111111111111111111111111111 Q
b0 R
b11111111111111111111111111111111 S
b10001001101010111100110111101111 T
0U
b0 V
1c!
xp
b11111111111111111111111111111111 q

#200000
0!
08
0c!

#205000
1!
0$
b11111110110111001011101010011000011101100101010000110010000100000000000100100011010001010110011110001001101010111100110111101111 &
1'
x-!
b11111111111111111111111111111111 .!
b10101010101010101010101010101010101010101010101010101010101010101010101010101010101010101010101010101010101010101010101010101010 6#
18
0;
b0 ?
b11111111111111111111111111111111111111111111111111111111111111110000000000000000000000000000000000000000000000000000000000000000 @
b0 A
b11111110110111001011101010011000011101100101010000110010000100000000000100100011010001010110011110001001101010111100110111101111 B
0C
1D
0E
1F
0G
xH
0H!
0I
b0 I!
xJ
0K
1L
0M
1N
0O
1P
b11111111111111111111111111111111 R
b0 S
b11111111111111111111111111111111 T
xU
1c!
0p
b0 q

#210000
0!
08
0c!

#215000
1!
b10101010101010101010101010101010101010101010101010101010101010101010101010101010101010101010101010101010101010101010101010101010 #
1$
b0 &
0'
b11111110110111001011101010011000011101100101010000110010000100000000000100100011010001010110011110001001101010111100110111101111 (
1)
0*
0-!
b0 .!
18
b10101010101010101010101010101010101010101010101010101010101010101010101010101010101010101010101010101010101010101010101010101010 :
1;
b11111111111111111111111111111111 ?
b0 @
b11111111111111111111111111111111000000000000000000000000000000000000000000000000000000000000000000000000000000000000000000000000 A
b0 B
1C
0D
1E
0F
1G
0H
xH!
xI
b11111111111111111111111111111111 I!
0J
xK
0L
1M
0N
1O
0P
b11111111111111111111111111111111 S
b0 T
0U
1c!
b11111110110111001011101010011000011101100101010000110010000100000000000100100011010001010110011110001001101010111100110111101111 e!
1f!
0g!
xp

#220000
0!
08
0c!

#225000
1!
x""
b11111110110111001011101010011000 #"
0$
1'
0)
x-!
18
0;
b10101010101010101010101010101010101010101010101010101010101010101010101010101010101010101010101010101010101010101010101010101010 >
b0 ?
b1111111111111111111111111111111111111111111111111111111111111111 @
b0 A
0C
1D
0E
1F
0G
xH
0H!
0I
b0 I!
xJ
0K
1L
0M
1N
0O
1P
b1010101010101010101010101010101 Q
b11111111111111111111111111111111 T
xU
b10101010101010101010101010101010 V
1c!
0f!
b11111110110111001011101010011000011101100101010000110010000100000000000100100011010001010110011110001001101010111100110111101111 i!
0n!
0p
xs!
1w!
b1001000110100010101100111 |!

#230000
0!
08
0c!

#235000
1!
0""
b0 #"
0'
b0 (
1)
0-!
18
x="
b0 >
b1110110010101000011001000010000 >"
b10101010101010101010101010101010101010101010101010101010101010101010101010101010101010101010101001010101010101010101010101010101 ?
b0 @
b111111111111111111111111111111111111111111111111111111111111111111111111111111111111111111111111 A
1C
0D
1E
0F
1G
0H
xH!
xI
0J
xK
0L
1M
0N
1O
0P
b11111111111111111111111111111111 Q
b1010101010101010101010101010101 R
0U
b0 V
1c!
b0 e!
1f!
b0 i!
b1110110010101000011001000010000000000010010001101000101011001111000100110101011110011011110111100000001001000110100010101100111 j!
1n!
0o!
xp
b10101010101010101010101010101010 q
0s!
xt!
0w!
1x!
b11111111111111111111111111111111 |!
b10001001101010111100110111101111 }!

#240000
0!
08
0c!

#245000
1!
x""
b11111111111111111111111111111111111111111111111111111111111111111111111111111111111111111111111111111111111111111111111111111111 &
1'
0)
x-!
b10101010101010101010101010101010 .!
18
0="
b0 >"
b0 ?
b10101010101010101010101010101010101010101010101010101010101010100101010101010101010101010101010101010101010101010101010101010101 @
b0 A
b11111111111111111111111111111111111111111111111111111111111111111111111111111111111111111111111111111111111111111111111111111111 B
1D
0E
1F
0G
0H!
0I
xJ
0K
0M
1N
0O
1P
b11111111111111111111111111111111 R
b1010101010101010101010101010101 S
xX"
b1001000110100010101100111 Y"
1c!
0f!
b0 j!
b1001000110100010101100111100010011010101111001101111011110000000100100011010001010110011110001001101010111100110111101111 k!
0n!
1o!
0p
0p!
b0 q
xs!
0t!
xu!
1w!
0x!
1y!
b11111111111111111111111111111111 }!
b11111110110111001011101010011000 ~!

#250000
0!
08
0c!

